#Command:  
C:\WINDOWS\MICROSOFT.NET\ASSEMBLY\GAC_MSIL\SYSTEM.DRAWING\V4.0_4.0.0.0__B03F5F7F11D50A3A\SYSTEM.DRAWING.DLL
C:\WINDOWS\ASSEMBLY\NATIVEIMAGES_V4.0.30319_64\SYSTEM.DRAWING\82C5A5AE4522E2125B6F262B52F5D7CA\SYSTEM.DRAWING.NI.DLL
C:\WINDOWS\ASSEMBLY\NATIVEIMAGES_V4.0.30319_64\SYSTEM.DRAWING\82C5A5AE4522E2125B6F262B52F5D7CA\SYSTEM.DRAWING.NI.DLL.AUX
C:\WINDOWS\MICROSOFT.NET\ASSEMBLY\GAC_MSIL\SYSTEM.DRAWING\V4.0_4.0.0.0__B03F5F7F11D50A3A\SYSTEM.DRAWING.DLL
C:\WINDOWS\MICROSOFT.NET\ASSEMBLY\GAC_MSIL\SYSTEM.WINDOWS.FORMS\V4.0_4.0.0.0__B77A5C561934E089\SYSTEM.WINDOWS.FORMS.DLL
C:\WINDOWS\ASSEMBLY\NATIVEIMAGES_V4.0.30319_64\SYSTEM.WINDOWS.FORMS\810582C1BD43C1E06AB47C66E98993BD\SYSTEM.WINDOWS.FORMS.NI.DLL
C:\WINDOWS\ASSEMBLY\NATIVEIMAGES_V4.0.30319_64\SYSTEM.WINDOWS.FORMS\810582C1BD43C1E06AB47C66E98993BD\SYSTEM.WINDOWS.FORMS.NI.DLL.AUX
C:\WINDOWS\MICROSOFT.NET\ASSEMBLY\GAC_MSIL\SYSTEM.WINDOWS.FORMS\V4.0_4.0.0.0__B77A5C561934E089\SYSTEM.WINDOWS.FORMS.DLL
C:\WINDOWS\MICROSOFT.NET\ASSEMBLY\GAC_MSIL\ACCESSIBILITY\V4.0_4.0.0.0__B03F5F7F11D50A3A\ACCESSIBILITY.DLL
C:\WINDOWS\MICROSOFT.NET\ASSEMBLY\GAC_MSIL\SYSTEM.DEPLOYMENT\V4.0_4.0.0.0__B03F5F7F11D50A3A\SYSTEM.DEPLOYMENT.DLL
C:\WINDOWS\MICROSOFT.NET\ASSEMBLY\GAC_MSIL\SYSTEM.RUNTIME.SERIALIZATION.FORMATTERS.SOAP\V4.0_4.0.0.0__B03F5F7F11D50A3A\SYSTEM.RUNTIME.SERIALIZATION.FORMATTERS.SOAP.DLL
C:\WINDOWS\MICROSOFT.NET\ASSEMBLY\GAC_64\MSCORLIB\V4.0_4.0.0.0__B77A5C561934E089\MSCORLIB.DLL
C:\PROGRAM FILES (X86)\MICROSOFT VISUAL STUDIO 14.0\VC\BIN\AMD64\VCTIP.EXE
