#Command:  
C:\WINDOWS\ASSEMBLY\NATIVEIMAGES_V4.0.30319_64\SYSTEM.CONFIGURATION\303D455E2EAC7725610CD55C8170BA00\SYSTEM.CONFIGURATION.NI.DLL
C:\WINDOWS\ASSEMBLY\NATIVEIMAGES_V4.0.30319_64\SYSTEM.CONFIGURATION\303D455E2EAC7725610CD55C8170BA00\SYSTEM.CONFIGURATION.NI.DLL.AUX
C:\WINDOWS\ASSEMBLY\NATIVEIMAGES_V4.0.30319_64\SYSTEM.XML\2F52CA6330AA92554ABF777E2B7D6783\SYSTEM.XML.NI.DLL
C:\WINDOWS\ASSEMBLY\NATIVEIMAGES_V4.0.30319_64\SYSTEM.XML\2F52CA6330AA92554ABF777E2B7D6783\SYSTEM.XML.NI.DLL.AUX
C:\WINDOWS\MICROSOFT.NET\ASSEMBLY\GAC_MSIL\SYSTEM.DATA.SQLXML\V4.0_4.0.0.0__B77A5C561934E089\SYSTEM.DATA.SQLXML.DLL
C:\WINDOWS\MICROSOFT.NET\FRAMEWORK64\V4.0.30319\CONFIG\MACHINE.CONFIG
C:\WINDOWS\MICROSOFT.NET\ASSEMBLY\GAC_MSIL\SYSTEM.NET.HTTP\V4.0_4.0.0.0__B03F5F7F11D50A3A\SYSTEM.NET.HTTP.DLL
C:\WINDOWS\ASSEMBLY\NATIVEIMAGES_V4.0.30319_64\SYSTEM.NET.HTTP\FD11D4197E474065CCEE3DF1757F7BCB\SYSTEM.NET.HTTP.NI.DLL
C:\WINDOWS\ASSEMBLY\NATIVEIMAGES_V4.0.30319_64\SYSTEM.NET.HTTP\FD11D4197E474065CCEE3DF1757F7BCB\SYSTEM.NET.HTTP.NI.DLL.AUX
C:\WINDOWS\MICROSOFT.NET\ASSEMBLY\GAC_MSIL\SYSTEM.NET.HTTP\V4.0_4.0.0.0__B03F5F7F11D50A3A\SYSTEM.NET.HTTP.DLL
