^C:\USERS\ELYYPS\DESKTOP\4TWIN\FULLSTACK\INTEGRATION\NODE_MODULES\SCRYPT\BUILD\RELEASE\OBJ\SCRYPT_WRAPPER\HASH.OBJ|C:\USERS\ELYYPS\DESKTOP\4TWIN\FULLSTACK\INTEGRATION\NODE_MODULES\SCRYPT\BUILD\RELEASE\OBJ\SCRYPT_WRAPPER\KEYDERIVATION.OBJ|C:\USERS\ELYYPS\DESKTOP\4TWIN\FULLSTACK\INTEGRATION\NODE_MODULES\SCRYPT\BUILD\RELEASE\OBJ\SCRYPT_WRAPPER\MEMLIMIT.OBJ|C:\USERS\ELYYPS\DESKTOP\4TWIN\FULLSTACK\INTEGRATION\NODE_MODULES\SCRYPT\BUILD\RELEASE\OBJ\SCRYPT_WRAPPER\PICKPARAMS.OBJ|C:\USERS\ELYYPS\DESKTOP\4TWIN\FULLSTACK\INTEGRATION\NODE_MODULES\SCRYPT\BUILD\RELEASE\OBJ\SCRYPT_WRAPPER\WIN_DELAY_LOAD_HOOK.OBJ
C:\PROGRAM FILES (X86)\MICROSOFT VISUAL STUDIO 14.0\VC\BIN\AMD64\VCTIP.EXE
C:\WINDOWS\SYSTEM32\TZRES.DLL
C:\WINDOWS\GLOBALIZATION\SORTING\SORTDEFAULT.NLS
C:\USERS\ELYYPS\DESKTOP\4TWIN\FULLSTACK\INTEGRATION\NODE_MODULES\SCRYPT\BUILD\RELEASE\OBJ\SCRYPT_WRAPPER\MEMLIMIT.OBJ
C:\USERS\ELYYPS\DESKTOP\4TWIN\FULLSTACK\INTEGRATION\NODE_MODULES\SCRYPT\BUILD\RELEASE\OBJ\SCRYPT_WRAPPER\KEYDERIVATION.OBJ
C:\USERS\ELYYPS\DESKTOP\4TWIN\FULLSTACK\INTEGRATION\NODE_MODULES\SCRYPT\BUILD\RELEASE\OBJ\SCRYPT_WRAPPER\PICKPARAMS.OBJ
C:\USERS\ELYYPS\DESKTOP\4TWIN\FULLSTACK\INTEGRATION\NODE_MODULES\SCRYPT\BUILD\RELEASE\OBJ\SCRYPT_WRAPPER\HASH.OBJ
C:\USERS\ELYYPS\DESKTOP\4TWIN\FULLSTACK\INTEGRATION\NODE_MODULES\SCRYPT\BUILD\RELEASE\OBJ\SCRYPT_WRAPPER\WIN_DELAY_LOAD_HOOK.OBJ
