^C:\USERS\ELYYPS\DESKTOP\4TWIN\FULLSTACK\INTEGRATION\NODE_MODULES\SCRYPT\BUILD\RELEASE\OBJ\SCRYPT\SCRYPT_COMMON.OBJ|C:\USERS\ELYYPS\DESKTOP\4TWIN\FULLSTACK\INTEGRATION\NODE_MODULES\SCRYPT\BUILD\RELEASE\OBJ\SCRYPT\SCRYPT_HASH_ASYNC.OBJ|C:\USERS\ELYYPS\DESKTOP\4TWIN\FULLSTACK\INTEGRATION\NODE_MODULES\SCRYPT\BUILD\RELEASE\OBJ\SCRYPT\SCRYPT_HASH_SYNC.OBJ|C:\USERS\ELYYPS\DESKTOP\4TWIN\FULLSTACK\INTEGRATION\NODE_MODULES\SCRYPT\BUILD\RELEASE\OBJ\SCRYPT\SCRYPT_KDF-VERIFY_ASYNC.OBJ|C:\USERS\ELYYPS\DESKTOP\4TWIN\FULLSTACK\INTEGRATION\NODE_MODULES\SCRYPT\BUILD\RELEASE\OBJ\SCRYPT\SCRYPT_KDF-VERIFY_SYNC.OBJ|C:\USERS\ELYYPS\DESKTOP\4TWIN\FULLSTACK\INTEGRATION\NODE_MODULES\SCRYPT\BUILD\RELEASE\OBJ\SCRYPT\SCRYPT_KDF_ASYNC.OBJ|C:\USERS\ELYYPS\DESKTOP\4TWIN\FULLSTACK\INTEGRATION\NODE_MODULES\SCRYPT\BUILD\RELEASE\OBJ\SCRYPT\SCRYPT_KDF_SYNC.OBJ|C:\USERS\ELYYPS\DESKTOP\4TWIN\FULLSTACK\INTEGRATION\NODE_MODULES\SCRYPT\BUILD\RELEASE\OBJ\SCRYPT\SCRYPT_NODE.OBJ|C:\USERS\ELYYPS\DESKTOP\4TWIN\FULLSTACK\INTEGRATION\NODE_MODULES\SCRYPT\BUILD\RELEASE\OBJ\SCRYPT\SCRYPT_PARAMS_ASYNC.OBJ|C:\USERS\ELYYPS\DESKTOP\4TWIN\FULLSTACK\INTEGRATION\NODE_MODULES\SCRYPT\BUILD\RELEASE\OBJ\SCRYPT\SCRYPT_PARAMS_SYNC.OBJ|C:\USERS\ELYYPS\DESKTOP\4TWIN\FULLSTACK\INTEGRATION\NODE_MODULES\SCRYPT\BUILD\RELEASE\OBJ\SCRYPT\WIN_DELAY_LOAD_HOOK.OBJ|C:\USERS\ELYYPS\DESKTOP\4TWIN\FULLSTACK\INTEGRATION\NODE_MODULES\SCRYPT\BUILD\RELEASE\SCRYPT_LIB.LIB|C:\USERS\ELYYPS\DESKTOP\4TWIN\FULLSTACK\INTEGRATION\NODE_MODULES\SCRYPT\BUILD\RELEASE\SCRYPT_WRAPPER.LIB
C:\PROGRAM FILES (X86)\MICROSOFT VISUAL STUDIO 14.0\VC\BIN\AMD64\VCTIP.EXE
C:\WINDOWS\SYSTEM32\TZRES.DLL
C:\WINDOWS\GLOBALIZATION\SORTING\SORTDEFAULT.NLS
C:\PROGRAM FILES (X86)\WINDOWS KITS\8.1\LIB\WINV6.3\UM\X64\KERNEL32.LIB
C:\PROGRAM FILES (X86)\WINDOWS KITS\8.1\LIB\WINV6.3\UM\X64\USER32.LIB
C:\PROGRAM FILES (X86)\WINDOWS KITS\8.1\LIB\WINV6.3\UM\X64\GDI32.LIB
C:\PROGRAM FILES (X86)\WINDOWS KITS\8.1\LIB\WINV6.3\UM\X64\WINSPOOL.LIB
C:\PROGRAM FILES (X86)\WINDOWS KITS\8.1\LIB\WINV6.3\UM\X64\COMDLG32.LIB
C:\PROGRAM FILES (X86)\WINDOWS KITS\8.1\LIB\WINV6.3\UM\X64\ADVAPI32.LIB
C:\PROGRAM FILES (X86)\WINDOWS KITS\8.1\LIB\WINV6.3\UM\X64\SHELL32.LIB
C:\PROGRAM FILES (X86)\WINDOWS KITS\8.1\LIB\WINV6.3\UM\X64\OLE32.LIB
C:\PROGRAM FILES (X86)\WINDOWS KITS\8.1\LIB\WINV6.3\UM\X64\OLEAUT32.LIB
C:\PROGRAM FILES (X86)\WINDOWS KITS\8.1\LIB\WINV6.3\UM\X64\UUID.LIB
C:\PROGRAM FILES (X86)\WINDOWS KITS\8.1\LIB\WINV6.3\UM\X64\ODBC32.LIB
C:\PROGRAM FILES (X86)\MICROSOFT VISUAL STUDIO 14.0\VC\LIB\AMD64\DELAYIMP.LIB
C:\USERS\ELYYPS\.NODE-GYP\8.9.4\X64\NODE.LIB
C:\USERS\ELYYPS\DESKTOP\4TWIN\FULLSTACK\INTEGRATION\NODE_MODULES\SCRYPT\BUILD\RELEASE\OBJ\SCRYPT\SCRYPT_COMMON.OBJ
C:\USERS\ELYYPS\DESKTOP\4TWIN\FULLSTACK\INTEGRATION\NODE_MODULES\SCRYPT\BUILD\RELEASE\OBJ\SCRYPT\SCRYPT_PARAMS_ASYNC.OBJ
C:\USERS\ELYYPS\DESKTOP\4TWIN\FULLSTACK\INTEGRATION\NODE_MODULES\SCRYPT\BUILD\RELEASE\OBJ\SCRYPT\SCRYPT_PARAMS_SYNC.OBJ
C:\USERS\ELYYPS\DESKTOP\4TWIN\FULLSTACK\INTEGRATION\NODE_MODULES\SCRYPT\BUILD\RELEASE\OBJ\SCRYPT\SCRYPT_KDF_ASYNC.OBJ
C:\USERS\ELYYPS\DESKTOP\4TWIN\FULLSTACK\INTEGRATION\NODE_MODULES\SCRYPT\BUILD\RELEASE\OBJ\SCRYPT\SCRYPT_KDF_SYNC.OBJ
C:\USERS\ELYYPS\DESKTOP\4TWIN\FULLSTACK\INTEGRATION\NODE_MODULES\SCRYPT\BUILD\RELEASE\OBJ\SCRYPT\SCRYPT_KDF-VERIFY_SYNC.OBJ
C:\USERS\ELYYPS\DESKTOP\4TWIN\FULLSTACK\INTEGRATION\NODE_MODULES\SCRYPT\BUILD\RELEASE\OBJ\SCRYPT\SCRYPT_KDF-VERIFY_ASYNC.OBJ
C:\USERS\ELYYPS\DESKTOP\4TWIN\FULLSTACK\INTEGRATION\NODE_MODULES\SCRYPT\BUILD\RELEASE\OBJ\SCRYPT\SCRYPT_HASH_SYNC.OBJ
C:\USERS\ELYYPS\DESKTOP\4TWIN\FULLSTACK\INTEGRATION\NODE_MODULES\SCRYPT\BUILD\RELEASE\OBJ\SCRYPT\SCRYPT_HASH_ASYNC.OBJ
C:\USERS\ELYYPS\DESKTOP\4TWIN\FULLSTACK\INTEGRATION\NODE_MODULES\SCRYPT\BUILD\RELEASE\OBJ\SCRYPT\SCRYPT_NODE.OBJ
C:\USERS\ELYYPS\DESKTOP\4TWIN\FULLSTACK\INTEGRATION\NODE_MODULES\SCRYPT\BUILD\RELEASE\OBJ\SCRYPT\WIN_DELAY_LOAD_HOOK.OBJ
C:\USERS\ELYYPS\DESKTOP\4TWIN\FULLSTACK\INTEGRATION\NODE_MODULES\SCRYPT\BUILD\RELEASE\SCRYPT_WRAPPER.LIB
C:\USERS\ELYYPS\DESKTOP\4TWIN\FULLSTACK\INTEGRATION\NODE_MODULES\SCRYPT\BUILD\RELEASE\SCRYPT_LIB.LIB
C:\PROGRAM FILES (X86)\MICROSOFT VISUAL STUDIO 14.0\VC\BIN\AMD64\C2.DLL
C:\PROGRAM FILES (X86)\MICROSOFT VISUAL STUDIO 14.0\VC\LIB\AMD64\LIBCPMT.LIB
C:\PROGRAM FILES (X86)\MICROSOFT VISUAL STUDIO 14.0\VC\LIB\AMD64\LIBCMT.LIB
C:\PROGRAM FILES (X86)\MICROSOFT VISUAL STUDIO 14.0\VC\LIB\AMD64\OLDNAMES.LIB
C:\PROGRAM FILES (X86)\MICROSOFT VISUAL STUDIO 14.0\VC\LIB\AMD64\LIBVCRUNTIME.LIB
C:\PROGRAM FILES (X86)\WINDOWS KITS\10\LIB\10.0.10240.0\UCRT\X64\LIBUCRT.LIB
C:\PROGRAM FILES (X86)\MICROSOFT VISUAL STUDIO 14.0\VC\BIN\AMD64\1033\LINKUI.DLL
C:\PROGRAM FILES (X86)\WINDOWS KITS\8.1\BIN\X64\RC.EXE
C:\PROGRAM FILES (X86)\MICROSOFT VISUAL STUDIO 14.0\VC\BIN\AMD64\CVTRES.EXE
C:\PROGRAM FILES (X86)\MICROSOFT VISUAL STUDIO 14.0\VC\LIB\AMD64\LIBCPMT.PDB
C:\PROGRAM FILES (X86)\MICROSOFT VISUAL STUDIO 14.0\VC\LIB\AMD64\LIBCMT.PDB
C:\PROGRAM FILES (X86)\MICROSOFT VISUAL STUDIO 14.0\VC\LIB\AMD64\LIBVCRUNTIME.PDB
C:\USERS\ELYYPS\DESKTOP\4TWIN\FULLSTACK\INTEGRATION\NODE_MODULES\SCRYPT\BUILD\RELEASE\OBJ\SCRYPT\VC140.PDB
C:\USERS\ELYYPS\DESKTOP\4TWIN\FULLSTACK\INTEGRATION\NODE_MODULES\SCRYPT\BUILD\RELEASE\OBJ\SCRYPT_WRAPPER\SCRYPT_WRAPPER.PDB
C:\USERS\ELYYPS\DESKTOP\4TWIN\FULLSTACK\INTEGRATION\NODE_MODULES\SCRYPT\BUILD\RELEASE\OBJ\SCRYPT_LIB\SCRYPT_LIB.PDB
